{
  "refmterr@3.3.2@d41d8cd9":
    "/home/intj/.esy/source/i/refmterr__3.3.2__c05a3ba9",
  "ocaml@4.10.0@d41d8cd9": "/home/intj/.esy/source/i/ocaml__4.10.0__da0415c8",
  "batclone@link-dev:./package.json": "/home/intj/git/batclone",
  "@reason-native/rely@3.2.1@d41d8cd9":
    "/home/intj/.esy/source/i/reason_native__s__rely__3.2.1__b79e06ab",
  "@reason-native/pastel@0.3.0@d41d8cd9":
    "/home/intj/.esy/source/i/reason_native__s__pastel__0.3.0__b97c16ec",
  "@reason-native/file-context-printer@0.0.3@d41d8cd9":
    "/home/intj/.esy/source/i/reason_native__s__file_context_printer__0.0.3__9dea979f",
  "@reason-native/console@0.1.0@d41d8cd9":
    "/home/intj/.esy/source/i/reason_native__s__console__0.1.0__d4af8f3d",
  "@reason-native/cli@0.0.1-alpha@d41d8cd9":
    "/home/intj/.esy/source/i/reason_native__s__cli__0.0.1_alpha__cbdaf1ad",
  "@opam/yojson@opam:1.7.0@7056d985":
    "/home/intj/.esy/source/i/opam__s__yojson__opam__c__1.7.0__397feda6",
  "@opam/uutf@opam:1.0.2@4440868f":
    "/home/intj/.esy/source/i/opam__s__uutf__opam__c__1.0.2__34474f09",
  "@opam/uchar@opam:0.0.2@c8218eea":
    "/home/intj/.esy/source/i/opam__s__uchar__opam__c__0.0.2__d1ad73a0",
  "@opam/tyxml@opam:4.4.0@1dca5713":
    "/home/intj/.esy/source/i/opam__s__tyxml__opam__c__4.4.0__ab2211a8",
  "@opam/topkg@opam:1.0.1@a42c631e":
    "/home/intj/.esy/source/i/opam__s__topkg__opam__c__1.0.1__52846a4c",
  "@opam/stdlib-shims@opam:0.1.0@d957c903":
    "/home/intj/.esy/source/i/opam__s__stdlib_shims__opam__c__0.1.0__0eb3c4d9",
  "@opam/stdio@opam:v0.13.0@eb59d879":
    "/home/intj/.esy/source/i/opam__s__stdio__opam__c__v0.13.0__d7d39043",
  "@opam/sexplib0@opam:v0.13.0@3f54c2be":
    "/home/intj/.esy/source/i/opam__s__sexplib0__opam__c__v0.13.0__7f6e9078",
  "@opam/seq@opam:base@d8d7de1d":
    "/home/intj/.esy/source/i/opam__s__seq__opam__c__base__a0c677b1",
  "@opam/rresult@opam:0.6.0@4b185e72":
    "/home/intj/.esy/source/i/opam__s__rresult__opam__c__0.6.0__108d9e8f",
  "@opam/result@opam:1.5@6b753c82":
    "/home/intj/.esy/source/i/opam__s__result__opam__c__1.5__9dc19750",
  "@opam/re@opam:1.9.0@d4d5e13d":
    "/home/intj/.esy/source/i/opam__s__re__opam__c__1.9.0__0f723101",
  "@opam/ptime@opam:0.8.5@0051d642":
    "/home/intj/.esy/source/i/opam__s__ptime__opam__c__0.8.5__79d19c69",
  "@opam/ppxlib@opam:0.13.0@65a9c7cc":
    "/home/intj/.esy/source/i/opam__s__ppxlib__opam__c__0.13.0__d1691208",
  "@opam/ppx_tools_versioned@opam:5.4.0@48c10ee1":
    "/home/intj/.esy/source/i/opam__s__ppx__tools__versioned__opam__c__5.4.0__af580415",
  "@opam/ppx_tools@opam:6.1+4.10.0@d7f16ed7":
    "/home/intj/.esy/source/i/opam__s__ppx__tools__opam__c__6.1+4.10.0__e7f7e96e",
  "@opam/ppx_let@opam:v0.13.0@5703d2be":
    "/home/intj/.esy/source/i/opam__s__ppx__let__opam__c__v0.13.0__d25aba76",
  "@opam/ppx_derivers@opam:1.2.1@ecf0aa45":
    "/home/intj/.esy/source/i/opam__s__ppx__derivers__opam__c__1.2.1__a5e0f03f",
  "@opam/ocplib-endian@opam:1.1@84c1ca88":
    "/home/intj/.esy/source/i/opam__s__ocplib_endian__opam__c__1.1__729a5869",
  "@opam/ocamlfind-secondary@opam:1.8.1@1afa38b2":
    "/home/intj/.esy/source/i/opam__s__ocamlfind_secondary__opam__c__1.8.1__0797ff08",
  "@opam/ocamlfind@opam:1.8.1@ff07b0f9":
    "/home/intj/.esy/source/i/opam__s__ocamlfind__opam__c__1.8.1__0bdaf9d3",
  "@opam/ocamlbuild@opam:0.14.0@6ac75d03":
    "/home/intj/.esy/source/i/opam__s__ocamlbuild__opam__c__0.14.0__aff6a0b0",
  "@opam/ocaml-secondary-compiler@opam:4.08.1-1@285d05c7":
    "/home/intj/.esy/source/i/opam__s__ocaml_secondary_compiler__opam__c__4.08.1_1__449d6c46",
  "@opam/ocaml-migrate-parsetree@opam:1.7.3@dbcf3b47":
    "/home/intj/.esy/source/i/opam__s__ocaml_migrate_parsetree__opam__c__1.7.3__41513eb4",
  "@opam/ocaml-compiler-libs@opam:v0.12.1@5c34eb0d":
    "/home/intj/.esy/source/i/opam__s__ocaml_compiler_libs__opam__c__v0.12.1__b59f5bd2",
  "@opam/mmap@opam:1.1.0@b85334ff":
    "/home/intj/.esy/source/i/opam__s__mmap__opam__c__1.1.0__2cba59f8",
  "@opam/merlin-extend@opam:0.5@675b1611":
    "/home/intj/.esy/source/i/opam__s__merlin_extend__opam__c__0.5__f37be4e4",
  "@opam/merlin@opam:3.3.4@980b49f2":
    "/home/intj/.esy/source/i/opam__s__merlin__opam__c__3.3.4__22819a52",
  "@opam/menhirSdk@opam:20200211@b2a79ec0":
    "/home/intj/.esy/source/i/opam__s__menhirsdk__opam__c__20200211__929d0cd3",
  "@opam/menhirLib@opam:20200211@93d0f001":
    "/home/intj/.esy/source/i/opam__s__menhirlib__opam__c__20200211__156a35bc",
  "@opam/menhir@opam:20200211@26571604":
    "/home/intj/.esy/source/i/opam__s__menhir__opam__c__20200211__169b4712",
  "@opam/lwt_ppx@opam:2.0.1@ab0debb8":
    "/home/intj/.esy/source/i/opam__s__lwt__ppx__opam__c__2.0.1__ec51d1b9",
  "@opam/lwt@opam:5.3.0@6519bffc":
    "/home/intj/.esy/source/i/opam__s__lwt__opam__c__5.3.0__2df121a2",
  "@opam/logs@opam:0.7.0@1d03143e":
    "/home/intj/.esy/source/i/opam__s__logs__opam__c__0.7.0__cf15da05",
  "@opam/junit@opam:2.0.2@0b7bd730":
    "/home/intj/.esy/source/i/opam__s__junit__opam__c__2.0.2__380d7b58",
  "@opam/fpath@opam:0.7.2@45477b93":
    "/home/intj/.esy/source/i/opam__s__fpath__opam__c__0.7.2__d7c490cc",
  "@opam/fmt@opam:0.8.8@01c3a23c":
    "/home/intj/.esy/source/i/opam__s__fmt__opam__c__0.8.8__81d71639",
  "@opam/fix@opam:20200131@0ecd2f01":
    "/home/intj/.esy/source/i/opam__s__fix__opam__c__20200131__d22e11da",
  "@opam/fileutils@opam:0.6.2@2c57b3ad":
    "/home/intj/.esy/source/i/opam__s__fileutils__opam__c__0.6.2__dfbb027c",
  "@opam/easy-format@opam:1.3.2@0484b3c4":
    "/home/intj/.esy/source/i/opam__s__easy_format__opam__c__1.3.2__f5ebc92b",
  "@opam/dune-private-libs@opam:2.5.1@60c1661f":
    "/home/intj/.esy/source/i/opam__s__dune_private_libs__opam__c__2.5.1__c342aa04",
  "@opam/dune-configurator@opam:2.5.1@aeb9d8d5":
    "/home/intj/.esy/source/i/opam__s__dune_configurator__opam__c__2.5.1__d4ac4bd3",
  "@opam/dune@opam:2.5.1@bf0da232":
    "/home/intj/.esy/source/i/opam__s__dune__opam__c__2.5.1__23255a5d",
  "@opam/cppo@opam:1.6.6@f4f83858":
    "/home/intj/.esy/source/i/opam__s__cppo__opam__c__1.6.6__df887bb2",
  "@opam/conf-m4@opam:1@3b2b148a":
    "/home/intj/.esy/source/i/opam__s__conf_m4__opam__c__1__7031fb84",
  "@opam/cmdliner@opam:1.0.4@93208aac":
    "/home/intj/.esy/source/i/opam__s__cmdliner__opam__c__1.0.4__11482f41",
  "@opam/bos@opam:0.2.0@df49e63f":
    "/home/intj/.esy/source/i/opam__s__bos__opam__c__0.2.0__7a96f5d8",
  "@opam/biniou@opam:1.2.1@d7570399":
    "/home/intj/.esy/source/i/opam__s__biniou__opam__c__1.2.1__b33b4deb",
  "@opam/base-unix@opam:base@87d0b2eb":
    "/home/intj/.esy/source/i/opam__s__base_unix__opam__c__base__93427a57",
  "@opam/base-threads@opam:base@36803084":
    "/home/intj/.esy/source/i/opam__s__base_threads__opam__c__base__f282958b",
  "@opam/base-bytes@opam:base@19d0c2ff":
    "/home/intj/.esy/source/i/opam__s__base_bytes__opam__c__base__48b6019a",
  "@opam/base@opam:v0.13.2@c3150775":
    "/home/intj/.esy/source/i/opam__s__base__opam__c__v0.13.2__6cea18e1",
  "@opam/atdgen-runtime@opam:2.2.1@6a3a6395":
    "/home/intj/.esy/source/i/opam__s__atdgen_runtime__opam__c__2.2.1__a5d612a2",
  "@opam/atdgen@opam:2.2.1@d73fda11":
    "/home/intj/.esy/source/i/opam__s__atdgen__opam__c__2.2.1__33f64bca",
  "@opam/atd@opam:2.2.1@071ab6bd":
    "/home/intj/.esy/source/i/opam__s__atd__opam__c__2.2.1__e7e80bbb",
  "@opam/astring@opam:0.8.3@4e5e17d5":
    "/home/intj/.esy/source/i/opam__s__astring__opam__c__0.8.3__3d7df80e",
  "@esy-ocaml/substs@0.0.1@d41d8cd9":
    "/home/intj/.esy/source/i/esy_ocaml__s__substs__0.0.1__19de1ee1",
  "@esy-ocaml/reason@3.6.0@d41d8cd9":
    "/home/intj/.esy/source/i/esy_ocaml__s__reason__3.6.0__7674eb71"
}