{
  "checksum": "70bcc99797eacac39175bfff98a2e420",
  "root": "batclone@link-dev:./package.json",
  "node": {
    "refmterr@3.3.2@d41d8cd9": {
      "id": "refmterr@3.3.2@d41d8cd9",
      "name": "refmterr",
      "version": "3.3.2",
      "source": {
        "type": "install",
        "source": [
          "archive:https://registry.npmjs.org/refmterr/-/refmterr-3.3.2.tgz#sha1:0536990e8a9f69684bdaa1e441904da6722fbb5a"
        ]
      },
      "overrides": [],
      "dependencies": [
        "ocaml@4.10.0@d41d8cd9", "@reason-native/pastel@0.3.0@d41d8cd9",
        "@reason-native/console@0.1.0@d41d8cd9",
        "@opam/re@opam:1.9.0@d4d5e13d", "@opam/dune@opam:2.5.1@bf0da232",
        "@opam/atdgen@opam:2.2.1@d73fda11",
        "@esy-ocaml/reason@3.6.0@d41d8cd9"
      ],
      "devDependencies": []
    },
    "ocaml@4.10.0@d41d8cd9": {
      "id": "ocaml@4.10.0@d41d8cd9",
      "name": "ocaml",
      "version": "4.10.0",
      "source": {
        "type": "install",
        "source": [
          "archive:https://registry.npmjs.org/ocaml/-/ocaml-4.10.0.tgz#sha1:3797ee252dca8dec38d3cdd42162923f56dba433"
        ]
      },
      "overrides": [],
      "dependencies": [],
      "devDependencies": []
    },
    "batclone@link-dev:./package.json": {
      "id": "batclone@link-dev:./package.json",
      "name": "batclone",
      "version": "link-dev:./package.json",
      "source": {
        "type": "link-dev",
        "path": ".",
        "manifest": "package.json"
      },
      "overrides": [],
      "dependencies": [
        "ocaml@4.10.0@d41d8cd9", "@reason-native/rely@3.2.1@d41d8cd9",
        "@opam/yojson@opam:1.7.0@7056d985",
        "@opam/ppx_tools@opam:6.1+4.10.0@d7f16ed7",
        "@opam/ppx_let@opam:v0.13.0@5703d2be",
        "@opam/lwt_ppx@opam:2.0.1@ab0debb8", "@opam/lwt@opam:5.3.0@6519bffc",
        "@opam/fileutils@opam:0.6.2@2c57b3ad",
        "@opam/dune@opam:2.5.1@bf0da232",
        "@opam/cmdliner@opam:1.0.4@93208aac",
        "@opam/bos@opam:0.2.0@df49e63f", "@esy-ocaml/reason@3.6.0@d41d8cd9"
      ],
      "devDependencies": [
        "refmterr@3.3.2@d41d8cd9", "ocaml@4.10.0@d41d8cd9",
        "@opam/merlin@opam:3.3.4@980b49f2"
      ]
    },
    "@reason-native/rely@3.2.1@d41d8cd9": {
      "id": "@reason-native/rely@3.2.1@d41d8cd9",
      "name": "@reason-native/rely",
      "version": "3.2.1",
      "source": {
        "type": "install",
        "source": [
          "archive:https://registry.npmjs.org/@reason-native/rely/-/rely-3.2.1.tgz#sha1:7945ac6a51773a97b8f8cfd97d2855ac7ac4ecb2"
        ]
      },
      "overrides": [],
      "dependencies": [
        "ocaml@4.10.0@d41d8cd9", "@reason-native/pastel@0.3.0@d41d8cd9",
        "@reason-native/file-context-printer@0.0.3@d41d8cd9",
        "@reason-native/cli@0.0.1-alpha@d41d8cd9",
        "@opam/re@opam:1.9.0@d4d5e13d", "@opam/junit@opam:2.0.2@0b7bd730",
        "@opam/dune@opam:2.5.1@bf0da232", "@esy-ocaml/reason@3.6.0@d41d8cd9"
      ],
      "devDependencies": []
    },
    "@reason-native/pastel@0.3.0@d41d8cd9": {
      "id": "@reason-native/pastel@0.3.0@d41d8cd9",
      "name": "@reason-native/pastel",
      "version": "0.3.0",
      "source": {
        "type": "install",
        "source": [
          "archive:https://registry.npmjs.org/@reason-native/pastel/-/pastel-0.3.0.tgz#sha1:07da3c5a0933e61bc3b353bc85aa71ac7c0f311c"
        ]
      },
      "overrides": [],
      "dependencies": [
        "ocaml@4.10.0@d41d8cd9", "@opam/re@opam:1.9.0@d4d5e13d",
        "@opam/dune@opam:2.5.1@bf0da232", "@esy-ocaml/reason@3.6.0@d41d8cd9"
      ],
      "devDependencies": []
    },
    "@reason-native/file-context-printer@0.0.3@d41d8cd9": {
      "id": "@reason-native/file-context-printer@0.0.3@d41d8cd9",
      "name": "@reason-native/file-context-printer",
      "version": "0.0.3",
      "source": {
        "type": "install",
        "source": [
          "archive:https://registry.npmjs.org/@reason-native/file-context-printer/-/file-context-printer-0.0.3.tgz#sha1:b92eec7b10107ccb27528f9eea9bb51252bca491"
        ]
      },
      "overrides": [],
      "dependencies": [
        "ocaml@4.10.0@d41d8cd9", "@reason-native/pastel@0.3.0@d41d8cd9",
        "@opam/re@opam:1.9.0@d4d5e13d", "@opam/dune@opam:2.5.1@bf0da232",
        "@esy-ocaml/reason@3.6.0@d41d8cd9"
      ],
      "devDependencies": []
    },
    "@reason-native/console@0.1.0@d41d8cd9": {
      "id": "@reason-native/console@0.1.0@d41d8cd9",
      "name": "@reason-native/console",
      "version": "0.1.0",
      "source": {
        "type": "install",
        "source": [
          "archive:https://registry.npmjs.org/@reason-native/console/-/console-0.1.0.tgz#sha1:3b56f0e9e1be8464329793df29020aa90e71c22c"
        ]
      },
      "overrides": [],
      "dependencies": [
        "ocaml@4.10.0@d41d8cd9", "@opam/dune@opam:2.5.1@bf0da232",
        "@esy-ocaml/reason@3.6.0@d41d8cd9"
      ],
      "devDependencies": []
    },
    "@reason-native/cli@0.0.1-alpha@d41d8cd9": {
      "id": "@reason-native/cli@0.0.1-alpha@d41d8cd9",
      "name": "@reason-native/cli",
      "version": "0.0.1-alpha",
      "source": {
        "type": "install",
        "source": [
          "archive:https://registry.npmjs.org/@reason-native/cli/-/cli-0.0.1-alpha.tgz#sha1:0b911053fa7cc661eac10ead50d6ea6cc1fcd94d"
        ]
      },
      "overrides": [],
      "dependencies": [
        "ocaml@4.10.0@d41d8cd9", "@reason-native/pastel@0.3.0@d41d8cd9",
        "@opam/re@opam:1.9.0@d4d5e13d", "@opam/dune@opam:2.5.1@bf0da232",
        "@esy-ocaml/reason@3.6.0@d41d8cd9"
      ],
      "devDependencies": []
    },
    "@opam/yojson@opam:1.7.0@7056d985": {
      "id": "@opam/yojson@opam:1.7.0@7056d985",
      "name": "@opam/yojson",
      "version": "opam:1.7.0",
      "source": {
        "type": "install",
        "source": [
          "archive:https://opam.ocaml.org/cache/md5/b8/b89d39ca3f8c532abe5f547ad3b8f84d#md5:b89d39ca3f8c532abe5f547ad3b8f84d",
          "archive:https://github.com/ocaml-community/yojson/releases/download/1.7.0/yojson-1.7.0.tbz#md5:b89d39ca3f8c532abe5f547ad3b8f84d"
        ],
        "opam": {
          "name": "yojson",
          "version": "1.7.0",
          "path": "esy.lock/opam/yojson.1.7.0"
        }
      },
      "overrides": [],
      "dependencies": [
        "ocaml@4.10.0@d41d8cd9", "@opam/easy-format@opam:1.3.2@0484b3c4",
        "@opam/dune@opam:2.5.1@bf0da232", "@opam/cppo@opam:1.6.6@f4f83858",
        "@opam/biniou@opam:1.2.1@d7570399",
        "@esy-ocaml/substs@0.0.1@d41d8cd9"
      ],
      "devDependencies": [
        "ocaml@4.10.0@d41d8cd9", "@opam/easy-format@opam:1.3.2@0484b3c4",
        "@opam/dune@opam:2.5.1@bf0da232", "@opam/biniou@opam:1.2.1@d7570399"
      ]
    },
    "@opam/uutf@opam:1.0.2@4440868f": {
      "id": "@opam/uutf@opam:1.0.2@4440868f",
      "name": "@opam/uutf",
      "version": "opam:1.0.2",
      "source": {
        "type": "install",
        "source": [
          "archive:https://opam.ocaml.org/cache/md5/a7/a7c542405a39630c689a82bd7ef2292c#md5:a7c542405a39630c689a82bd7ef2292c",
          "archive:http://erratique.ch/software/uutf/releases/uutf-1.0.2.tbz#md5:a7c542405a39630c689a82bd7ef2292c"
        ],
        "opam": {
          "name": "uutf",
          "version": "1.0.2",
          "path": "esy.lock/opam/uutf.1.0.2"
        }
      },
      "overrides": [],
      "dependencies": [
        "ocaml@4.10.0@d41d8cd9", "@opam/uchar@opam:0.0.2@c8218eea",
        "@opam/topkg@opam:1.0.1@a42c631e",
        "@opam/ocamlfind@opam:1.8.1@ff07b0f9",
        "@opam/ocamlbuild@opam:0.14.0@6ac75d03",
        "@opam/cmdliner@opam:1.0.4@93208aac",
        "@esy-ocaml/substs@0.0.1@d41d8cd9"
      ],
      "devDependencies": [
        "ocaml@4.10.0@d41d8cd9", "@opam/uchar@opam:0.0.2@c8218eea"
      ]
    },
    "@opam/uchar@opam:0.0.2@c8218eea": {
      "id": "@opam/uchar@opam:0.0.2@c8218eea",
      "name": "@opam/uchar",
      "version": "opam:0.0.2",
      "source": {
        "type": "install",
        "source": [
          "archive:https://opam.ocaml.org/cache/md5/c9/c9ba2c738d264c420c642f7bb1cf4a36#md5:c9ba2c738d264c420c642f7bb1cf4a36",
          "archive:https://github.com/ocaml/uchar/releases/download/v0.0.2/uchar-0.0.2.tbz#md5:c9ba2c738d264c420c642f7bb1cf4a36"
        ],
        "opam": {
          "name": "uchar",
          "version": "0.0.2",
          "path": "esy.lock/opam/uchar.0.0.2"
        }
      },
      "overrides": [],
      "dependencies": [
        "ocaml@4.10.0@d41d8cd9", "@opam/ocamlbuild@opam:0.14.0@6ac75d03",
        "@esy-ocaml/substs@0.0.1@d41d8cd9"
      ],
      "devDependencies": [ "ocaml@4.10.0@d41d8cd9" ]
    },
    "@opam/tyxml@opam:4.4.0@1dca5713": {
      "id": "@opam/tyxml@opam:4.4.0@1dca5713",
      "name": "@opam/tyxml",
      "version": "opam:4.4.0",
      "source": {
        "type": "install",
        "source": [
          "archive:https://opam.ocaml.org/cache/sha256/51/516394dd4a5c31726997c51d66aa31cacb91e3c46d4e16c7699130e204042530#sha256:516394dd4a5c31726997c51d66aa31cacb91e3c46d4e16c7699130e204042530",
          "archive:https://github.com/ocsigen/tyxml/releases/download/4.4.0/tyxml-4.4.0.tbz#sha256:516394dd4a5c31726997c51d66aa31cacb91e3c46d4e16c7699130e204042530"
        ],
        "opam": {
          "name": "tyxml",
          "version": "4.4.0",
          "path": "esy.lock/opam/tyxml.4.4.0"
        }
      },
      "overrides": [],
      "dependencies": [
        "ocaml@4.10.0@d41d8cd9", "@opam/uutf@opam:1.0.2@4440868f",
        "@opam/seq@opam:base@d8d7de1d", "@opam/re@opam:1.9.0@d4d5e13d",
        "@opam/dune@opam:2.5.1@bf0da232", "@esy-ocaml/substs@0.0.1@d41d8cd9"
      ],
      "devDependencies": [
        "ocaml@4.10.0@d41d8cd9", "@opam/uutf@opam:1.0.2@4440868f",
        "@opam/seq@opam:base@d8d7de1d", "@opam/re@opam:1.9.0@d4d5e13d",
        "@opam/dune@opam:2.5.1@bf0da232"
      ]
    },
    "@opam/topkg@opam:1.0.1@a42c631e": {
      "id": "@opam/topkg@opam:1.0.1@a42c631e",
      "name": "@opam/topkg",
      "version": "opam:1.0.1",
      "source": {
        "type": "install",
        "source": [
          "archive:https://opam.ocaml.org/cache/md5/16/16b90e066d8972a5ef59655e7c28b3e9#md5:16b90e066d8972a5ef59655e7c28b3e9",
          "archive:http://erratique.ch/software/topkg/releases/topkg-1.0.1.tbz#md5:16b90e066d8972a5ef59655e7c28b3e9"
        ],
        "opam": {
          "name": "topkg",
          "version": "1.0.1",
          "path": "esy.lock/opam/topkg.1.0.1"
        }
      },
      "overrides": [],
      "dependencies": [
        "ocaml@4.10.0@d41d8cd9", "@opam/ocamlfind@opam:1.8.1@ff07b0f9",
        "@opam/ocamlbuild@opam:0.14.0@6ac75d03",
        "@esy-ocaml/substs@0.0.1@d41d8cd9"
      ],
      "devDependencies": [
        "ocaml@4.10.0@d41d8cd9", "@opam/ocamlbuild@opam:0.14.0@6ac75d03"
      ]
    },
    "@opam/stdlib-shims@opam:0.1.0@d957c903": {
      "id": "@opam/stdlib-shims@opam:0.1.0@d957c903",
      "name": "@opam/stdlib-shims",
      "version": "opam:0.1.0",
      "source": {
        "type": "install",
        "source": [
          "archive:https://opam.ocaml.org/cache/md5/12/12b5704eed70c6bff5ac39a16db1425d#md5:12b5704eed70c6bff5ac39a16db1425d",
          "archive:https://github.com/ocaml/stdlib-shims/releases/download/0.1.0/stdlib-shims-0.1.0.tbz#md5:12b5704eed70c6bff5ac39a16db1425d"
        ],
        "opam": {
          "name": "stdlib-shims",
          "version": "0.1.0",
          "path": "esy.lock/opam/stdlib-shims.0.1.0"
        }
      },
      "overrides": [],
      "dependencies": [
        "ocaml@4.10.0@d41d8cd9", "@opam/dune@opam:2.5.1@bf0da232",
        "@esy-ocaml/substs@0.0.1@d41d8cd9"
      ],
      "devDependencies": [
        "ocaml@4.10.0@d41d8cd9", "@opam/dune@opam:2.5.1@bf0da232"
      ]
    },
    "@opam/stdio@opam:v0.13.0@eb59d879": {
      "id": "@opam/stdio@opam:v0.13.0@eb59d879",
      "name": "@opam/stdio",
      "version": "opam:v0.13.0",
      "source": {
        "type": "install",
        "source": [
          "archive:https://opam.ocaml.org/cache/md5/48/48ef28512ddd51ff9885649dd1fab91d#md5:48ef28512ddd51ff9885649dd1fab91d",
          "archive:https://ocaml.janestreet.com/ocaml-core/v0.13/files/stdio-v0.13.0.tar.gz#md5:48ef28512ddd51ff9885649dd1fab91d"
        ],
        "opam": {
          "name": "stdio",
          "version": "v0.13.0",
          "path": "esy.lock/opam/stdio.v0.13.0"
        }
      },
      "overrides": [],
      "dependencies": [
        "ocaml@4.10.0@d41d8cd9", "@opam/dune@opam:2.5.1@bf0da232",
        "@opam/base@opam:v0.13.2@c3150775",
        "@esy-ocaml/substs@0.0.1@d41d8cd9"
      ],
      "devDependencies": [
        "ocaml@4.10.0@d41d8cd9", "@opam/dune@opam:2.5.1@bf0da232",
        "@opam/base@opam:v0.13.2@c3150775"
      ]
    },
    "@opam/sexplib0@opam:v0.13.0@3f54c2be": {
      "id": "@opam/sexplib0@opam:v0.13.0@3f54c2be",
      "name": "@opam/sexplib0",
      "version": "opam:v0.13.0",
      "source": {
        "type": "install",
        "source": [
          "archive:https://opam.ocaml.org/cache/md5/f8/f8a715dffda5599cfae0cb4031d57abe#md5:f8a715dffda5599cfae0cb4031d57abe",
          "archive:https://ocaml.janestreet.com/ocaml-core/v0.13/files/sexplib0-v0.13.0.tar.gz#md5:f8a715dffda5599cfae0cb4031d57abe"
        ],
        "opam": {
          "name": "sexplib0",
          "version": "v0.13.0",
          "path": "esy.lock/opam/sexplib0.v0.13.0"
        }
      },
      "overrides": [],
      "dependencies": [
        "ocaml@4.10.0@d41d8cd9", "@opam/dune@opam:2.5.1@bf0da232",
        "@esy-ocaml/substs@0.0.1@d41d8cd9"
      ],
      "devDependencies": [
        "ocaml@4.10.0@d41d8cd9", "@opam/dune@opam:2.5.1@bf0da232"
      ]
    },
    "@opam/seq@opam:base@d8d7de1d": {
      "id": "@opam/seq@opam:base@d8d7de1d",
      "name": "@opam/seq",
      "version": "opam:base",
      "source": {
        "type": "install",
        "source": [ "no-source:" ],
        "opam": {
          "name": "seq",
          "version": "base",
          "path": "esy.lock/opam/seq.base"
        }
      },
      "overrides": [],
      "dependencies": [
        "ocaml@4.10.0@d41d8cd9", "@esy-ocaml/substs@0.0.1@d41d8cd9"
      ],
      "devDependencies": [ "ocaml@4.10.0@d41d8cd9" ]
    },
    "@opam/rresult@opam:0.6.0@4b185e72": {
      "id": "@opam/rresult@opam:0.6.0@4b185e72",
      "name": "@opam/rresult",
      "version": "opam:0.6.0",
      "source": {
        "type": "install",
        "source": [
          "archive:https://opam.ocaml.org/cache/md5/ab/aba88cffa29081714468c2c7bcdf7fb1#md5:aba88cffa29081714468c2c7bcdf7fb1",
          "archive:http://erratique.ch/software/rresult/releases/rresult-0.6.0.tbz#md5:aba88cffa29081714468c2c7bcdf7fb1"
        ],
        "opam": {
          "name": "rresult",
          "version": "0.6.0",
          "path": "esy.lock/opam/rresult.0.6.0"
        }
      },
      "overrides": [],
      "dependencies": [
        "ocaml@4.10.0@d41d8cd9", "@opam/topkg@opam:1.0.1@a42c631e",
        "@opam/result@opam:1.5@6b753c82",
        "@opam/ocamlfind@opam:1.8.1@ff07b0f9",
        "@opam/ocamlbuild@opam:0.14.0@6ac75d03",
        "@esy-ocaml/substs@0.0.1@d41d8cd9"
      ],
      "devDependencies": [
        "ocaml@4.10.0@d41d8cd9", "@opam/result@opam:1.5@6b753c82"
      ]
    },
    "@opam/result@opam:1.5@6b753c82": {
      "id": "@opam/result@opam:1.5@6b753c82",
      "name": "@opam/result",
      "version": "opam:1.5",
      "source": {
        "type": "install",
        "source": [
          "archive:https://opam.ocaml.org/cache/md5/1b/1b82dec78849680b49ae9a8a365b831b#md5:1b82dec78849680b49ae9a8a365b831b",
          "archive:https://github.com/janestreet/result/releases/download/1.5/result-1.5.tbz#md5:1b82dec78849680b49ae9a8a365b831b"
        ],
        "opam": {
          "name": "result",
          "version": "1.5",
          "path": "esy.lock/opam/result.1.5"
        }
      },
      "overrides": [],
      "dependencies": [
        "ocaml@4.10.0@d41d8cd9", "@opam/dune@opam:2.5.1@bf0da232",
        "@esy-ocaml/substs@0.0.1@d41d8cd9"
      ],
      "devDependencies": [
        "ocaml@4.10.0@d41d8cd9", "@opam/dune@opam:2.5.1@bf0da232"
      ]
    },
    "@opam/re@opam:1.9.0@d4d5e13d": {
      "id": "@opam/re@opam:1.9.0@d4d5e13d",
      "name": "@opam/re",
      "version": "opam:1.9.0",
      "source": {
        "type": "install",
        "source": [
          "archive:https://opam.ocaml.org/cache/md5/bd/bddaed4f386a22cace7850c9c7dac296#md5:bddaed4f386a22cace7850c9c7dac296",
          "archive:https://github.com/ocaml/ocaml-re/releases/download/1.9.0/re-1.9.0.tbz#md5:bddaed4f386a22cace7850c9c7dac296"
        ],
        "opam": {
          "name": "re",
          "version": "1.9.0",
          "path": "esy.lock/opam/re.1.9.0"
        }
      },
      "overrides": [],
      "dependencies": [
        "ocaml@4.10.0@d41d8cd9", "@opam/seq@opam:base@d8d7de1d",
        "@opam/dune@opam:2.5.1@bf0da232", "@esy-ocaml/substs@0.0.1@d41d8cd9"
      ],
      "devDependencies": [
        "ocaml@4.10.0@d41d8cd9", "@opam/seq@opam:base@d8d7de1d",
        "@opam/dune@opam:2.5.1@bf0da232"
      ]
    },
    "@opam/ptime@opam:0.8.5@0051d642": {
      "id": "@opam/ptime@opam:0.8.5@0051d642",
      "name": "@opam/ptime",
      "version": "opam:0.8.5",
      "source": {
        "type": "install",
        "source": [
          "archive:https://opam.ocaml.org/cache/md5/4d/4d48055d623ecf2db792439b3e96a520#md5:4d48055d623ecf2db792439b3e96a520",
          "archive:https://erratique.ch/software/ptime/releases/ptime-0.8.5.tbz#md5:4d48055d623ecf2db792439b3e96a520"
        ],
        "opam": {
          "name": "ptime",
          "version": "0.8.5",
          "path": "esy.lock/opam/ptime.0.8.5"
        }
      },
      "overrides": [],
      "dependencies": [
        "ocaml@4.10.0@d41d8cd9", "@opam/topkg@opam:1.0.1@a42c631e",
        "@opam/result@opam:1.5@6b753c82",
        "@opam/ocamlfind@opam:1.8.1@ff07b0f9",
        "@opam/ocamlbuild@opam:0.14.0@6ac75d03",
        "@esy-ocaml/substs@0.0.1@d41d8cd9"
      ],
      "devDependencies": [
        "ocaml@4.10.0@d41d8cd9", "@opam/result@opam:1.5@6b753c82"
      ]
    },
    "@opam/ppxlib@opam:0.13.0@65a9c7cc": {
      "id": "@opam/ppxlib@opam:0.13.0@65a9c7cc",
      "name": "@opam/ppxlib",
      "version": "opam:0.13.0",
      "source": {
        "type": "install",
        "source": [
          "archive:https://opam.ocaml.org/cache/sha256/81/81e1f3d308500e0e7f6108d5b0dda2b879640a5c21ef3dc4a9bd90381cee39d9#sha256:81e1f3d308500e0e7f6108d5b0dda2b879640a5c21ef3dc4a9bd90381cee39d9",
          "archive:https://github.com/ocaml-ppx/ppxlib/releases/download/0.13.0/ppxlib-0.13.0.tbz#sha256:81e1f3d308500e0e7f6108d5b0dda2b879640a5c21ef3dc4a9bd90381cee39d9"
        ],
        "opam": {
          "name": "ppxlib",
          "version": "0.13.0",
          "path": "esy.lock/opam/ppxlib.0.13.0"
        }
      },
      "overrides": [],
      "dependencies": [
        "ocaml@4.10.0@d41d8cd9", "@opam/stdio@opam:v0.13.0@eb59d879",
        "@opam/ppx_derivers@opam:1.2.1@ecf0aa45",
        "@opam/ocaml-migrate-parsetree@opam:1.7.3@dbcf3b47",
        "@opam/ocaml-compiler-libs@opam:v0.12.1@5c34eb0d",
        "@opam/dune@opam:2.5.1@bf0da232", "@opam/base@opam:v0.13.2@c3150775",
        "@esy-ocaml/substs@0.0.1@d41d8cd9"
      ],
      "devDependencies": [
        "ocaml@4.10.0@d41d8cd9", "@opam/stdio@opam:v0.13.0@eb59d879",
        "@opam/ppx_derivers@opam:1.2.1@ecf0aa45",
        "@opam/ocaml-migrate-parsetree@opam:1.7.3@dbcf3b47",
        "@opam/ocaml-compiler-libs@opam:v0.12.1@5c34eb0d",
        "@opam/dune@opam:2.5.1@bf0da232", "@opam/base@opam:v0.13.2@c3150775"
      ]
    },
    "@opam/ppx_tools_versioned@opam:5.4.0@48c10ee1": {
      "id": "@opam/ppx_tools_versioned@opam:5.4.0@48c10ee1",
      "name": "@opam/ppx_tools_versioned",
      "version": "opam:5.4.0",
      "source": {
        "type": "install",
        "source": [
          "archive:https://opam.ocaml.org/cache/md5/3e/3e809a11cae99f57c051d3d0100311f6#md5:3e809a11cae99f57c051d3d0100311f6",
          "archive:https://github.com/ocaml-ppx/ppx_tools_versioned/archive/5.4.0.tar.gz#md5:3e809a11cae99f57c051d3d0100311f6"
        ],
        "opam": {
          "name": "ppx_tools_versioned",
          "version": "5.4.0",
          "path": "esy.lock/opam/ppx_tools_versioned.5.4.0"
        }
      },
      "overrides": [],
      "dependencies": [
        "ocaml@4.10.0@d41d8cd9",
        "@opam/ocaml-migrate-parsetree@opam:1.7.3@dbcf3b47",
        "@opam/dune@opam:2.5.1@bf0da232", "@esy-ocaml/substs@0.0.1@d41d8cd9"
      ],
      "devDependencies": [
        "ocaml@4.10.0@d41d8cd9",
        "@opam/ocaml-migrate-parsetree@opam:1.7.3@dbcf3b47",
        "@opam/dune@opam:2.5.1@bf0da232"
      ]
    },
    "@opam/ppx_tools@opam:6.1+4.10.0@d7f16ed7": {
      "id": "@opam/ppx_tools@opam:6.1+4.10.0@d7f16ed7",
      "name": "@opam/ppx_tools",
      "version": "opam:6.1+4.10.0",
      "source": {
        "type": "install",
        "source": [
          "archive:https://opam.ocaml.org/cache/md5/02/02fe2fab316e4a8b39d899e5839d7eec#md5:02fe2fab316e4a8b39d899e5839d7eec",
          "archive:https://github.com/ocaml-ppx/ppx_tools/archive/6.1+4.10.0.tar.gz#md5:02fe2fab316e4a8b39d899e5839d7eec"
        ],
        "opam": {
          "name": "ppx_tools",
          "version": "6.1+4.10.0",
          "path": "esy.lock/opam/ppx_tools.6.1+4.10.0"
        }
      },
      "overrides": [],
      "dependencies": [
        "ocaml@4.10.0@d41d8cd9", "@opam/dune@opam:2.5.1@bf0da232",
        "@esy-ocaml/substs@0.0.1@d41d8cd9"
      ],
      "devDependencies": [
        "ocaml@4.10.0@d41d8cd9", "@opam/dune@opam:2.5.1@bf0da232"
      ]
    },
    "@opam/ppx_let@opam:v0.13.0@5703d2be": {
      "id": "@opam/ppx_let@opam:v0.13.0@5703d2be",
      "name": "@opam/ppx_let",
      "version": "opam:v0.13.0",
      "source": {
        "type": "install",
        "source": [
          "archive:https://opam.ocaml.org/cache/md5/8b/8b5fab936fffa4b02f786ef18ab0c877#md5:8b5fab936fffa4b02f786ef18ab0c877",
          "archive:https://ocaml.janestreet.com/ocaml-core/v0.13/files/ppx_let-v0.13.0.tar.gz#md5:8b5fab936fffa4b02f786ef18ab0c877"
        ],
        "opam": {
          "name": "ppx_let",
          "version": "v0.13.0",
          "path": "esy.lock/opam/ppx_let.v0.13.0"
        }
      },
      "overrides": [],
      "dependencies": [
        "ocaml@4.10.0@d41d8cd9", "@opam/ppxlib@opam:0.13.0@65a9c7cc",
        "@opam/dune@opam:2.5.1@bf0da232", "@opam/base@opam:v0.13.2@c3150775",
        "@esy-ocaml/substs@0.0.1@d41d8cd9"
      ],
      "devDependencies": [
        "ocaml@4.10.0@d41d8cd9", "@opam/ppxlib@opam:0.13.0@65a9c7cc",
        "@opam/dune@opam:2.5.1@bf0da232", "@opam/base@opam:v0.13.2@c3150775"
      ]
    },
    "@opam/ppx_derivers@opam:1.2.1@ecf0aa45": {
      "id": "@opam/ppx_derivers@opam:1.2.1@ecf0aa45",
      "name": "@opam/ppx_derivers",
      "version": "opam:1.2.1",
      "source": {
        "type": "install",
        "source": [
          "archive:https://opam.ocaml.org/cache/md5/5d/5dc2bf130c1db3c731fe0fffc5648b41#md5:5dc2bf130c1db3c731fe0fffc5648b41",
          "archive:https://github.com/ocaml-ppx/ppx_derivers/archive/1.2.1.tar.gz#md5:5dc2bf130c1db3c731fe0fffc5648b41"
        ],
        "opam": {
          "name": "ppx_derivers",
          "version": "1.2.1",
          "path": "esy.lock/opam/ppx_derivers.1.2.1"
        }
      },
      "overrides": [],
      "dependencies": [
        "ocaml@4.10.0@d41d8cd9", "@opam/dune@opam:2.5.1@bf0da232",
        "@esy-ocaml/substs@0.0.1@d41d8cd9"
      ],
      "devDependencies": [
        "ocaml@4.10.0@d41d8cd9", "@opam/dune@opam:2.5.1@bf0da232"
      ]
    },
    "@opam/ocplib-endian@opam:1.1@84c1ca88": {
      "id": "@opam/ocplib-endian@opam:1.1@84c1ca88",
      "name": "@opam/ocplib-endian",
      "version": "opam:1.1",
      "source": {
        "type": "install",
        "source": [
          "archive:https://opam.ocaml.org/cache/md5/de/dedf4d69c1b87b3c6c7234f632399285#md5:dedf4d69c1b87b3c6c7234f632399285",
          "archive:https://github.com/OCamlPro/ocplib-endian/archive/1.1.tar.gz#md5:dedf4d69c1b87b3c6c7234f632399285"
        ],
        "opam": {
          "name": "ocplib-endian",
          "version": "1.1",
          "path": "esy.lock/opam/ocplib-endian.1.1"
        }
      },
      "overrides": [],
      "dependencies": [
        "ocaml@4.10.0@d41d8cd9", "@opam/dune@opam:2.5.1@bf0da232",
        "@opam/cppo@opam:1.6.6@f4f83858",
        "@opam/base-bytes@opam:base@19d0c2ff",
        "@esy-ocaml/substs@0.0.1@d41d8cd9"
      ],
      "devDependencies": [
        "ocaml@4.10.0@d41d8cd9", "@opam/dune@opam:2.5.1@bf0da232",
        "@opam/base-bytes@opam:base@19d0c2ff"
      ]
    },
    "@opam/ocamlfind-secondary@opam:1.8.1@1afa38b2": {
      "id": "@opam/ocamlfind-secondary@opam:1.8.1@1afa38b2",
      "name": "@opam/ocamlfind-secondary",
      "version": "opam:1.8.1",
      "source": {
        "type": "install",
        "source": [
          "archive:https://opam.ocaml.org/cache/md5/18/18ca650982c15536616dea0e422cbd8c#md5:18ca650982c15536616dea0e422cbd8c",
          "archive:http://download2.camlcity.org/download/findlib-1.8.1.tar.gz#md5:18ca650982c15536616dea0e422cbd8c",
          "archive:http://download.camlcity.org/download/findlib-1.8.1.tar.gz#md5:18ca650982c15536616dea0e422cbd8c"
        ],
        "opam": {
          "name": "ocamlfind-secondary",
          "version": "1.8.1",
          "path": "esy.lock/opam/ocamlfind-secondary.1.8.1"
        }
      },
      "overrides": [
        {
          "opamoverride":
            "esy.lock/overrides/opam__s__ocamlfind_secondary_opam__c__1.8.1_opam_override"
        }
      ],
      "dependencies": [
        "@opam/ocamlfind@opam:1.8.1@ff07b0f9",
        "@opam/ocaml-secondary-compiler@opam:4.08.1-1@285d05c7",
        "@esy-ocaml/substs@0.0.1@d41d8cd9"
      ],
      "devDependencies": [
        "@opam/ocamlfind@opam:1.8.1@ff07b0f9",
        "@opam/ocaml-secondary-compiler@opam:4.08.1-1@285d05c7"
      ]
    },
    "@opam/ocamlfind@opam:1.8.1@ff07b0f9": {
      "id": "@opam/ocamlfind@opam:1.8.1@ff07b0f9",
      "name": "@opam/ocamlfind",
      "version": "opam:1.8.1",
      "source": {
        "type": "install",
        "source": [
          "archive:https://opam.ocaml.org/cache/md5/18/18ca650982c15536616dea0e422cbd8c#md5:18ca650982c15536616dea0e422cbd8c",
          "archive:http://download2.camlcity.org/download/findlib-1.8.1.tar.gz#md5:18ca650982c15536616dea0e422cbd8c",
          "archive:http://download.camlcity.org/download/findlib-1.8.1.tar.gz#md5:18ca650982c15536616dea0e422cbd8c"
        ],
        "opam": {
          "name": "ocamlfind",
          "version": "1.8.1",
          "path": "esy.lock/opam/ocamlfind.1.8.1"
        }
      },
      "overrides": [
        {
          "opamoverride":
            "esy.lock/overrides/opam__s__ocamlfind_opam__c__1.8.1_opam_override"
        }
      ],
      "dependencies": [
        "ocaml@4.10.0@d41d8cd9", "@opam/conf-m4@opam:1@3b2b148a",
        "@esy-ocaml/substs@0.0.1@d41d8cd9"
      ],
      "devDependencies": [ "ocaml@4.10.0@d41d8cd9" ]
    },
    "@opam/ocamlbuild@opam:0.14.0@6ac75d03": {
      "id": "@opam/ocamlbuild@opam:0.14.0@6ac75d03",
      "name": "@opam/ocamlbuild",
      "version": "opam:0.14.0",
      "source": {
        "type": "install",
        "source": [
          "archive:https://opam.ocaml.org/cache/sha256/87/87b29ce96958096c0a1a8eeafeb6268077b2d11e1bf2b3de0f5ebc9cf8d42e78#sha256:87b29ce96958096c0a1a8eeafeb6268077b2d11e1bf2b3de0f5ebc9cf8d42e78",
          "archive:https://github.com/ocaml/ocamlbuild/archive/0.14.0.tar.gz#sha256:87b29ce96958096c0a1a8eeafeb6268077b2d11e1bf2b3de0f5ebc9cf8d42e78"
        ],
        "opam": {
          "name": "ocamlbuild",
          "version": "0.14.0",
          "path": "esy.lock/opam/ocamlbuild.0.14.0"
        }
      },
      "overrides": [
        {
          "opamoverride":
            "esy.lock/overrides/opam__s__ocamlbuild_opam__c__0.14.0_opam_override"
        }
      ],
      "dependencies": [
        "ocaml@4.10.0@d41d8cd9", "@esy-ocaml/substs@0.0.1@d41d8cd9"
      ],
      "devDependencies": [ "ocaml@4.10.0@d41d8cd9" ]
    },
    "@opam/ocaml-secondary-compiler@opam:4.08.1-1@285d05c7": {
      "id": "@opam/ocaml-secondary-compiler@opam:4.08.1-1@285d05c7",
      "name": "@opam/ocaml-secondary-compiler",
      "version": "opam:4.08.1-1",
      "source": {
        "type": "install",
        "source": [
          "archive:https://opam.ocaml.org/cache/md5/72/723b6bfe8cf5abcbccc6911143f71055#md5:723b6bfe8cf5abcbccc6911143f71055",
          "archive:https://github.com/ocaml/ocaml/archive/4.08.1.tar.gz#md5:723b6bfe8cf5abcbccc6911143f71055"
        ],
        "opam": {
          "name": "ocaml-secondary-compiler",
          "version": "4.08.1-1",
          "path": "esy.lock/opam/ocaml-secondary-compiler.4.08.1-1"
        }
      },
      "overrides": [],
      "dependencies": [
        "ocaml@4.10.0@d41d8cd9", "@esy-ocaml/substs@0.0.1@d41d8cd9"
      ],
      "devDependencies": [ "ocaml@4.10.0@d41d8cd9" ]
    },
    "@opam/ocaml-migrate-parsetree@opam:1.7.3@dbcf3b47": {
      "id": "@opam/ocaml-migrate-parsetree@opam:1.7.3@dbcf3b47",
      "name": "@opam/ocaml-migrate-parsetree",
      "version": "opam:1.7.3",
      "source": {
        "type": "install",
        "source": [
          "archive:https://opam.ocaml.org/cache/sha256/6d/6d85717bcf476b87f290714872ed4fbde0233dc899c3158a27f439d70224fb55#sha256:6d85717bcf476b87f290714872ed4fbde0233dc899c3158a27f439d70224fb55",
          "archive:https://github.com/ocaml-ppx/ocaml-migrate-parsetree/releases/download/v1.7.3/ocaml-migrate-parsetree-v1.7.3.tbz#sha256:6d85717bcf476b87f290714872ed4fbde0233dc899c3158a27f439d70224fb55"
        ],
        "opam": {
          "name": "ocaml-migrate-parsetree",
          "version": "1.7.3",
          "path": "esy.lock/opam/ocaml-migrate-parsetree.1.7.3"
        }
      },
      "overrides": [],
      "dependencies": [
        "ocaml@4.10.0@d41d8cd9", "@opam/result@opam:1.5@6b753c82",
        "@opam/ppx_derivers@opam:1.2.1@ecf0aa45",
        "@opam/dune@opam:2.5.1@bf0da232", "@esy-ocaml/substs@0.0.1@d41d8cd9"
      ],
      "devDependencies": [
        "ocaml@4.10.0@d41d8cd9", "@opam/result@opam:1.5@6b753c82",
        "@opam/ppx_derivers@opam:1.2.1@ecf0aa45",
        "@opam/dune@opam:2.5.1@bf0da232"
      ]
    },
    "@opam/ocaml-compiler-libs@opam:v0.12.1@5c34eb0d": {
      "id": "@opam/ocaml-compiler-libs@opam:v0.12.1@5c34eb0d",
      "name": "@opam/ocaml-compiler-libs",
      "version": "opam:v0.12.1",
      "source": {
        "type": "install",
        "source": [
          "archive:https://opam.ocaml.org/cache/md5/2f/2f929af7c764a3f681a5671f271210c4#md5:2f929af7c764a3f681a5671f271210c4",
          "archive:https://github.com/janestreet/ocaml-compiler-libs/archive/v0.12.1.tar.gz#md5:2f929af7c764a3f681a5671f271210c4"
        ],
        "opam": {
          "name": "ocaml-compiler-libs",
          "version": "v0.12.1",
          "path": "esy.lock/opam/ocaml-compiler-libs.v0.12.1"
        }
      },
      "overrides": [],
      "dependencies": [
        "ocaml@4.10.0@d41d8cd9", "@opam/dune@opam:2.5.1@bf0da232",
        "@esy-ocaml/substs@0.0.1@d41d8cd9"
      ],
      "devDependencies": [
        "ocaml@4.10.0@d41d8cd9", "@opam/dune@opam:2.5.1@bf0da232"
      ]
    },
    "@opam/mmap@opam:1.1.0@b85334ff": {
      "id": "@opam/mmap@opam:1.1.0@b85334ff",
      "name": "@opam/mmap",
      "version": "opam:1.1.0",
      "source": {
        "type": "install",
        "source": [
          "archive:https://opam.ocaml.org/cache/md5/8c/8c5d5fbc537296dc525867535fb878ba#md5:8c5d5fbc537296dc525867535fb878ba",
          "archive:https://github.com/mirage/mmap/releases/download/v1.1.0/mmap-v1.1.0.tbz#md5:8c5d5fbc537296dc525867535fb878ba"
        ],
        "opam": {
          "name": "mmap",
          "version": "1.1.0",
          "path": "esy.lock/opam/mmap.1.1.0"
        }
      },
      "overrides": [],
      "dependencies": [
        "ocaml@4.10.0@d41d8cd9", "@opam/dune@opam:2.5.1@bf0da232",
        "@esy-ocaml/substs@0.0.1@d41d8cd9"
      ],
      "devDependencies": [
        "ocaml@4.10.0@d41d8cd9", "@opam/dune@opam:2.5.1@bf0da232"
      ]
    },
    "@opam/merlin-extend@opam:0.5@675b1611": {
      "id": "@opam/merlin-extend@opam:0.5@675b1611",
      "name": "@opam/merlin-extend",
      "version": "opam:0.5",
      "source": {
        "type": "install",
        "source": [
          "archive:https://opam.ocaml.org/cache/sha256/ca/ca3a38c360c7d4827eb4789abf7a6aa4b6e3b4e3c3ef69a5be64dce4601ec227#sha256:ca3a38c360c7d4827eb4789abf7a6aa4b6e3b4e3c3ef69a5be64dce4601ec227",
          "archive:https://github.com/let-def/merlin-extend/releases/download/v0.5/merlin-extend-v0.5.tbz#sha256:ca3a38c360c7d4827eb4789abf7a6aa4b6e3b4e3c3ef69a5be64dce4601ec227"
        ],
        "opam": {
          "name": "merlin-extend",
          "version": "0.5",
          "path": "esy.lock/opam/merlin-extend.0.5"
        }
      },
      "overrides": [],
      "dependencies": [
        "ocaml@4.10.0@d41d8cd9", "@opam/dune@opam:2.5.1@bf0da232",
        "@opam/cppo@opam:1.6.6@f4f83858", "@esy-ocaml/substs@0.0.1@d41d8cd9"
      ],
      "devDependencies": [
        "ocaml@4.10.0@d41d8cd9", "@opam/dune@opam:2.5.1@bf0da232"
      ]
    },
    "@opam/merlin@opam:3.3.4@980b49f2": {
      "id": "@opam/merlin@opam:3.3.4@980b49f2",
      "name": "@opam/merlin",
      "version": "opam:3.3.4",
      "source": {
        "type": "install",
        "source": [
          "archive:https://opam.ocaml.org/cache/sha256/ad/adcde0ebe3dce183bae0df1cc988e0aa5cd4e446b59bc081d5350f6b58cc9d8b#sha256:adcde0ebe3dce183bae0df1cc988e0aa5cd4e446b59bc081d5350f6b58cc9d8b",
          "archive:https://github.com/ocaml/merlin/releases/download/v3.3.4/merlin-v3.3.4.tbz#sha256:adcde0ebe3dce183bae0df1cc988e0aa5cd4e446b59bc081d5350f6b58cc9d8b"
        ],
        "opam": {
          "name": "merlin",
          "version": "3.3.4",
          "path": "esy.lock/opam/merlin.3.3.4"
        }
      },
      "overrides": [],
      "dependencies": [
        "ocaml@4.10.0@d41d8cd9", "@opam/yojson@opam:1.7.0@7056d985",
        "@opam/ocamlfind@opam:1.8.1@ff07b0f9",
        "@opam/dune@opam:2.5.1@bf0da232", "@esy-ocaml/substs@0.0.1@d41d8cd9"
      ],
      "devDependencies": [
        "ocaml@4.10.0@d41d8cd9", "@opam/yojson@opam:1.7.0@7056d985",
        "@opam/ocamlfind@opam:1.8.1@ff07b0f9",
        "@opam/dune@opam:2.5.1@bf0da232"
      ]
    },
    "@opam/menhirSdk@opam:20200211@b2a79ec0": {
      "id": "@opam/menhirSdk@opam:20200211@b2a79ec0",
      "name": "@opam/menhirSdk",
      "version": "opam:20200211",
      "source": {
        "type": "install",
        "source": [
          "archive:https://opam.ocaml.org/cache/md5/01/01577e5f15380c35bdaa8fd818204560#md5:01577e5f15380c35bdaa8fd818204560",
          "archive:https://gitlab.inria.fr/fpottier/menhir/repository/20200211/archive.tar.gz#md5:01577e5f15380c35bdaa8fd818204560"
        ],
        "opam": {
          "name": "menhirSdk",
          "version": "20200211",
          "path": "esy.lock/opam/menhirSdk.20200211"
        }
      },
      "overrides": [],
      "dependencies": [
        "ocaml@4.10.0@d41d8cd9", "@opam/dune@opam:2.5.1@bf0da232",
        "@esy-ocaml/substs@0.0.1@d41d8cd9"
      ],
      "devDependencies": [
        "ocaml@4.10.0@d41d8cd9", "@opam/dune@opam:2.5.1@bf0da232"
      ]
    },
    "@opam/menhirLib@opam:20200211@93d0f001": {
      "id": "@opam/menhirLib@opam:20200211@93d0f001",
      "name": "@opam/menhirLib",
      "version": "opam:20200211",
      "source": {
        "type": "install",
        "source": [
          "archive:https://opam.ocaml.org/cache/md5/01/01577e5f15380c35bdaa8fd818204560#md5:01577e5f15380c35bdaa8fd818204560",
          "archive:https://gitlab.inria.fr/fpottier/menhir/repository/20200211/archive.tar.gz#md5:01577e5f15380c35bdaa8fd818204560"
        ],
        "opam": {
          "name": "menhirLib",
          "version": "20200211",
          "path": "esy.lock/opam/menhirLib.20200211"
        }
      },
      "overrides": [],
      "dependencies": [
        "ocaml@4.10.0@d41d8cd9", "@opam/dune@opam:2.5.1@bf0da232",
        "@esy-ocaml/substs@0.0.1@d41d8cd9"
      ],
      "devDependencies": [
        "ocaml@4.10.0@d41d8cd9", "@opam/dune@opam:2.5.1@bf0da232"
      ]
    },
    "@opam/menhir@opam:20200211@26571604": {
      "id": "@opam/menhir@opam:20200211@26571604",
      "name": "@opam/menhir",
      "version": "opam:20200211",
      "source": {
        "type": "install",
        "source": [
          "archive:https://opam.ocaml.org/cache/md5/01/01577e5f15380c35bdaa8fd818204560#md5:01577e5f15380c35bdaa8fd818204560",
          "archive:https://gitlab.inria.fr/fpottier/menhir/repository/20200211/archive.tar.gz#md5:01577e5f15380c35bdaa8fd818204560"
        ],
        "opam": {
          "name": "menhir",
          "version": "20200211",
          "path": "esy.lock/opam/menhir.20200211"
        }
      },
      "overrides": [
        {
          "opamoverride":
            "esy.lock/overrides/opam__s__menhir_opam__c__20200211_opam_override"
        }
      ],
      "dependencies": [
        "ocaml@4.10.0@d41d8cd9", "@opam/menhirSdk@opam:20200211@b2a79ec0",
        "@opam/menhirLib@opam:20200211@93d0f001",
        "@opam/fix@opam:20200131@0ecd2f01", "@opam/dune@opam:2.5.1@bf0da232",
        "@esy-ocaml/substs@0.0.1@d41d8cd9"
      ],
      "devDependencies": [
        "ocaml@4.10.0@d41d8cd9", "@opam/menhirSdk@opam:20200211@b2a79ec0",
        "@opam/menhirLib@opam:20200211@93d0f001",
        "@opam/dune@opam:2.5.1@bf0da232"
      ]
    },
    "@opam/lwt_ppx@opam:2.0.1@ab0debb8": {
      "id": "@opam/lwt_ppx@opam:2.0.1@ab0debb8",
      "name": "@opam/lwt_ppx",
      "version": "opam:2.0.1",
      "source": {
        "type": "install",
        "source": [
          "archive:https://opam.ocaml.org/cache/md5/d5/d5783fcff4fbfa7f79c9303776e4d144#md5:d5783fcff4fbfa7f79c9303776e4d144",
          "archive:https://github.com/ocsigen/lwt/archive/5.2.0.tar.gz#md5:d5783fcff4fbfa7f79c9303776e4d144"
        ],
        "opam": {
          "name": "lwt_ppx",
          "version": "2.0.1",
          "path": "esy.lock/opam/lwt_ppx.2.0.1"
        }
      },
      "overrides": [],
      "dependencies": [
        "ocaml@4.10.0@d41d8cd9",
        "@opam/ppx_tools_versioned@opam:5.4.0@48c10ee1",
        "@opam/ocaml-migrate-parsetree@opam:1.7.3@dbcf3b47",
        "@opam/lwt@opam:5.3.0@6519bffc", "@opam/dune@opam:2.5.1@bf0da232",
        "@esy-ocaml/substs@0.0.1@d41d8cd9"
      ],
      "devDependencies": [
        "ocaml@4.10.0@d41d8cd9",
        "@opam/ppx_tools_versioned@opam:5.4.0@48c10ee1",
        "@opam/ocaml-migrate-parsetree@opam:1.7.3@dbcf3b47",
        "@opam/lwt@opam:5.3.0@6519bffc", "@opam/dune@opam:2.5.1@bf0da232"
      ]
    },
    "@opam/lwt@opam:5.3.0@6519bffc": {
      "id": "@opam/lwt@opam:5.3.0@6519bffc",
      "name": "@opam/lwt",
      "version": "opam:5.3.0",
      "source": {
        "type": "install",
        "source": [
          "archive:https://opam.ocaml.org/cache/md5/85/85e9c7e9095b4e14d0698e3ece72f378#md5:85e9c7e9095b4e14d0698e3ece72f378",
          "archive:https://github.com/ocsigen/lwt/archive/5.3.0.tar.gz#md5:85e9c7e9095b4e14d0698e3ece72f378"
        ],
        "opam": {
          "name": "lwt",
          "version": "5.3.0",
          "path": "esy.lock/opam/lwt.5.3.0"
        }
      },
      "overrides": [],
      "dependencies": [
        "ocaml@4.10.0@d41d8cd9", "@opam/seq@opam:base@d8d7de1d",
        "@opam/result@opam:1.5@6b753c82",
        "@opam/ocplib-endian@opam:1.1@84c1ca88",
        "@opam/mmap@opam:1.1.0@b85334ff",
        "@opam/dune-configurator@opam:2.5.1@aeb9d8d5",
        "@opam/dune@opam:2.5.1@bf0da232", "@opam/cppo@opam:1.6.6@f4f83858",
        "@opam/base-unix@opam:base@87d0b2eb",
        "@opam/base-threads@opam:base@36803084",
        "@esy-ocaml/substs@0.0.1@d41d8cd9"
      ],
      "devDependencies": [
        "ocaml@4.10.0@d41d8cd9", "@opam/seq@opam:base@d8d7de1d",
        "@opam/result@opam:1.5@6b753c82",
        "@opam/ocplib-endian@opam:1.1@84c1ca88",
        "@opam/mmap@opam:1.1.0@b85334ff",
        "@opam/dune-configurator@opam:2.5.1@aeb9d8d5",
        "@opam/dune@opam:2.5.1@bf0da232"
      ]
    },
    "@opam/logs@opam:0.7.0@1d03143e": {
      "id": "@opam/logs@opam:0.7.0@1d03143e",
      "name": "@opam/logs",
      "version": "opam:0.7.0",
      "source": {
        "type": "install",
        "source": [
          "archive:https://opam.ocaml.org/cache/md5/2b/2bf021ca13331775e33cf34ab60246f7#md5:2bf021ca13331775e33cf34ab60246f7",
          "archive:https://erratique.ch/software/logs/releases/logs-0.7.0.tbz#md5:2bf021ca13331775e33cf34ab60246f7"
        ],
        "opam": {
          "name": "logs",
          "version": "0.7.0",
          "path": "esy.lock/opam/logs.0.7.0"
        }
      },
      "overrides": [],
      "dependencies": [
        "ocaml@4.10.0@d41d8cd9", "@opam/topkg@opam:1.0.1@a42c631e",
        "@opam/ocamlfind@opam:1.8.1@ff07b0f9",
        "@opam/ocamlbuild@opam:0.14.0@6ac75d03",
        "@opam/lwt@opam:5.3.0@6519bffc", "@opam/fmt@opam:0.8.8@01c3a23c",
        "@opam/cmdliner@opam:1.0.4@93208aac",
        "@opam/base-threads@opam:base@36803084",
        "@esy-ocaml/substs@0.0.1@d41d8cd9"
      ],
      "devDependencies": [ "ocaml@4.10.0@d41d8cd9" ]
    },
    "@opam/junit@opam:2.0.2@0b7bd730": {
      "id": "@opam/junit@opam:2.0.2@0b7bd730",
      "name": "@opam/junit",
      "version": "opam:2.0.2",
      "source": {
        "type": "install",
        "source": [
          "archive:https://opam.ocaml.org/cache/sha256/fd/fda941b653613a4a5731f9b3557364b12baa341daa13c01676c9eb8d64e96b01#sha256:fda941b653613a4a5731f9b3557364b12baa341daa13c01676c9eb8d64e96b01",
          "archive:https://github.com/Khady/ocaml-junit/releases/download/2.0.2/junit-2.0.2.tbz#sha256:fda941b653613a4a5731f9b3557364b12baa341daa13c01676c9eb8d64e96b01"
        ],
        "opam": {
          "name": "junit",
          "version": "2.0.2",
          "path": "esy.lock/opam/junit.2.0.2"
        }
      },
      "overrides": [],
      "dependencies": [
        "@opam/tyxml@opam:4.4.0@1dca5713", "@opam/ptime@opam:0.8.5@0051d642",
        "@opam/dune@opam:2.5.1@bf0da232", "@esy-ocaml/substs@0.0.1@d41d8cd9"
      ],
      "devDependencies": [
        "@opam/tyxml@opam:4.4.0@1dca5713", "@opam/ptime@opam:0.8.5@0051d642",
        "@opam/dune@opam:2.5.1@bf0da232"
      ]
    },
    "@opam/fpath@opam:0.7.2@45477b93": {
      "id": "@opam/fpath@opam:0.7.2@45477b93",
      "name": "@opam/fpath",
      "version": "opam:0.7.2",
      "source": {
        "type": "install",
        "source": [
          "archive:https://opam.ocaml.org/cache/md5/52/52c7ecb0bf180088336f3c645875fa41#md5:52c7ecb0bf180088336f3c645875fa41",
          "archive:http://erratique.ch/software/fpath/releases/fpath-0.7.2.tbz#md5:52c7ecb0bf180088336f3c645875fa41"
        ],
        "opam": {
          "name": "fpath",
          "version": "0.7.2",
          "path": "esy.lock/opam/fpath.0.7.2"
        }
      },
      "overrides": [],
      "dependencies": [
        "ocaml@4.10.0@d41d8cd9", "@opam/topkg@opam:1.0.1@a42c631e",
        "@opam/result@opam:1.5@6b753c82",
        "@opam/ocamlfind@opam:1.8.1@ff07b0f9",
        "@opam/ocamlbuild@opam:0.14.0@6ac75d03",
        "@opam/astring@opam:0.8.3@4e5e17d5",
        "@esy-ocaml/substs@0.0.1@d41d8cd9"
      ],
      "devDependencies": [
        "ocaml@4.10.0@d41d8cd9", "@opam/result@opam:1.5@6b753c82",
        "@opam/astring@opam:0.8.3@4e5e17d5"
      ]
    },
    "@opam/fmt@opam:0.8.8@01c3a23c": {
      "id": "@opam/fmt@opam:0.8.8@01c3a23c",
      "name": "@opam/fmt",
      "version": "opam:0.8.8",
      "source": {
        "type": "install",
        "source": [
          "archive:https://opam.ocaml.org/cache/md5/47/473490fcfdf3ff0a8ccee226b873d4b2#md5:473490fcfdf3ff0a8ccee226b873d4b2",
          "archive:https://erratique.ch/software/fmt/releases/fmt-0.8.8.tbz#md5:473490fcfdf3ff0a8ccee226b873d4b2"
        ],
        "opam": {
          "name": "fmt",
          "version": "0.8.8",
          "path": "esy.lock/opam/fmt.0.8.8"
        }
      },
      "overrides": [],
      "dependencies": [
        "ocaml@4.10.0@d41d8cd9", "@opam/topkg@opam:1.0.1@a42c631e",
        "@opam/stdlib-shims@opam:0.1.0@d957c903",
        "@opam/seq@opam:base@d8d7de1d",
        "@opam/ocamlfind@opam:1.8.1@ff07b0f9",
        "@opam/ocamlbuild@opam:0.14.0@6ac75d03",
        "@opam/cmdliner@opam:1.0.4@93208aac",
        "@opam/base-unix@opam:base@87d0b2eb",
        "@esy-ocaml/substs@0.0.1@d41d8cd9"
      ],
      "devDependencies": [
        "ocaml@4.10.0@d41d8cd9", "@opam/stdlib-shims@opam:0.1.0@d957c903",
        "@opam/seq@opam:base@d8d7de1d"
      ]
    },
    "@opam/fix@opam:20200131@0ecd2f01": {
      "id": "@opam/fix@opam:20200131@0ecd2f01",
      "name": "@opam/fix",
      "version": "opam:20200131",
      "source": {
        "type": "install",
        "source": [
          "archive:https://opam.ocaml.org/cache/md5/99/991ff031666c662eaab638d2e0f4ac1d#md5:991ff031666c662eaab638d2e0f4ac1d",
          "archive:https://gitlab.inria.fr/fpottier/fix/repository/20200131/archive.tar.gz#md5:991ff031666c662eaab638d2e0f4ac1d"
        ],
        "opam": {
          "name": "fix",
          "version": "20200131",
          "path": "esy.lock/opam/fix.20200131"
        }
      },
      "overrides": [],
      "dependencies": [
        "ocaml@4.10.0@d41d8cd9", "@opam/dune@opam:2.5.1@bf0da232",
        "@esy-ocaml/substs@0.0.1@d41d8cd9"
      ],
      "devDependencies": [
        "ocaml@4.10.0@d41d8cd9", "@opam/dune@opam:2.5.1@bf0da232"
      ]
    },
    "@opam/fileutils@opam:0.6.2@2c57b3ad": {
      "id": "@opam/fileutils@opam:0.6.2@2c57b3ad",
      "name": "@opam/fileutils",
      "version": "opam:0.6.2",
      "source": {
        "type": "install",
        "source": [
          "archive:https://opam.ocaml.org/cache/sha256/c7/c73d94247b6aef1450853ed14677ae58e9701376475d3f29ca730472a0171e1d#sha256:c73d94247b6aef1450853ed14677ae58e9701376475d3f29ca730472a0171e1d",
          "archive:https://github.com/gildor478/ocaml-fileutils/releases/download/v0.6.2/fileutils-v0.6.2.tbz#sha256:c73d94247b6aef1450853ed14677ae58e9701376475d3f29ca730472a0171e1d"
        ],
        "opam": {
          "name": "fileutils",
          "version": "0.6.2",
          "path": "esy.lock/opam/fileutils.0.6.2"
        }
      },
      "overrides": [],
      "dependencies": [
        "ocaml@4.10.0@d41d8cd9", "@opam/stdlib-shims@opam:0.1.0@d957c903",
        "@opam/dune@opam:2.5.1@bf0da232",
        "@opam/base-unix@opam:base@87d0b2eb",
        "@opam/base-bytes@opam:base@19d0c2ff",
        "@esy-ocaml/substs@0.0.1@d41d8cd9"
      ],
      "devDependencies": [
        "ocaml@4.10.0@d41d8cd9", "@opam/stdlib-shims@opam:0.1.0@d957c903",
        "@opam/dune@opam:2.5.1@bf0da232",
        "@opam/base-unix@opam:base@87d0b2eb",
        "@opam/base-bytes@opam:base@19d0c2ff"
      ]
    },
    "@opam/easy-format@opam:1.3.2@0484b3c4": {
      "id": "@opam/easy-format@opam:1.3.2@0484b3c4",
      "name": "@opam/easy-format",
      "version": "opam:1.3.2",
      "source": {
        "type": "install",
        "source": [
          "archive:https://opam.ocaml.org/cache/sha256/34/3440c2b882d537ae5e9011eb06abb53f5667e651ea4bb3b460ea8230fa8c1926#sha256:3440c2b882d537ae5e9011eb06abb53f5667e651ea4bb3b460ea8230fa8c1926",
          "archive:https://github.com/mjambon/easy-format/releases/download/1.3.2/easy-format-1.3.2.tbz#sha256:3440c2b882d537ae5e9011eb06abb53f5667e651ea4bb3b460ea8230fa8c1926"
        ],
        "opam": {
          "name": "easy-format",
          "version": "1.3.2",
          "path": "esy.lock/opam/easy-format.1.3.2"
        }
      },
      "overrides": [],
      "dependencies": [
        "ocaml@4.10.0@d41d8cd9", "@opam/dune@opam:2.5.1@bf0da232",
        "@esy-ocaml/substs@0.0.1@d41d8cd9"
      ],
      "devDependencies": [
        "ocaml@4.10.0@d41d8cd9", "@opam/dune@opam:2.5.1@bf0da232"
      ]
    },
    "@opam/dune-private-libs@opam:2.5.1@60c1661f": {
      "id": "@opam/dune-private-libs@opam:2.5.1@60c1661f",
      "name": "@opam/dune-private-libs",
      "version": "opam:2.5.1",
      "source": {
        "type": "install",
        "source": [
          "archive:https://opam.ocaml.org/cache/sha256/8f/8f77d3a87f208e0d7cccaa1c48c4bb1bb87d62d07c3f25e9b8ba298e028ce52b#sha256:8f77d3a87f208e0d7cccaa1c48c4bb1bb87d62d07c3f25e9b8ba298e028ce52b",
          "archive:https://github.com/ocaml/dune/releases/download/2.5.1/dune-2.5.1.tbz#sha256:8f77d3a87f208e0d7cccaa1c48c4bb1bb87d62d07c3f25e9b8ba298e028ce52b"
        ],
        "opam": {
          "name": "dune-private-libs",
          "version": "2.5.1",
          "path": "esy.lock/opam/dune-private-libs.2.5.1"
        }
      },
      "overrides": [],
      "dependencies": [
        "ocaml@4.10.0@d41d8cd9", "@opam/dune@opam:2.5.1@bf0da232",
        "@esy-ocaml/substs@0.0.1@d41d8cd9"
      ],
      "devDependencies": [
        "ocaml@4.10.0@d41d8cd9", "@opam/dune@opam:2.5.1@bf0da232"
      ]
    },
    "@opam/dune-configurator@opam:2.5.1@aeb9d8d5": {
      "id": "@opam/dune-configurator@opam:2.5.1@aeb9d8d5",
      "name": "@opam/dune-configurator",
      "version": "opam:2.5.1",
      "source": {
        "type": "install",
        "source": [
          "archive:https://opam.ocaml.org/cache/sha256/8f/8f77d3a87f208e0d7cccaa1c48c4bb1bb87d62d07c3f25e9b8ba298e028ce52b#sha256:8f77d3a87f208e0d7cccaa1c48c4bb1bb87d62d07c3f25e9b8ba298e028ce52b",
          "archive:https://github.com/ocaml/dune/releases/download/2.5.1/dune-2.5.1.tbz#sha256:8f77d3a87f208e0d7cccaa1c48c4bb1bb87d62d07c3f25e9b8ba298e028ce52b"
        ],
        "opam": {
          "name": "dune-configurator",
          "version": "2.5.1",
          "path": "esy.lock/opam/dune-configurator.2.5.1"
        }
      },
      "overrides": [],
      "dependencies": [
        "@opam/dune-private-libs@opam:2.5.1@60c1661f",
        "@opam/dune@opam:2.5.1@bf0da232", "@esy-ocaml/substs@0.0.1@d41d8cd9"
      ],
      "devDependencies": [
        "@opam/dune-private-libs@opam:2.5.1@60c1661f",
        "@opam/dune@opam:2.5.1@bf0da232"
      ]
    },
    "@opam/dune@opam:2.5.1@bf0da232": {
      "id": "@opam/dune@opam:2.5.1@bf0da232",
      "name": "@opam/dune",
      "version": "opam:2.5.1",
      "source": {
        "type": "install",
        "source": [
          "archive:https://opam.ocaml.org/cache/sha256/8f/8f77d3a87f208e0d7cccaa1c48c4bb1bb87d62d07c3f25e9b8ba298e028ce52b#sha256:8f77d3a87f208e0d7cccaa1c48c4bb1bb87d62d07c3f25e9b8ba298e028ce52b",
          "archive:https://github.com/ocaml/dune/releases/download/2.5.1/dune-2.5.1.tbz#sha256:8f77d3a87f208e0d7cccaa1c48c4bb1bb87d62d07c3f25e9b8ba298e028ce52b"
        ],
        "opam": {
          "name": "dune",
          "version": "2.5.1",
          "path": "esy.lock/opam/dune.2.5.1"
        }
      },
      "overrides": [
        {
          "opamoverride":
            "esy.lock/overrides/opam__s__dune_opam__c__2.5.1_opam_override"
        }
      ],
      "dependencies": [
        "ocaml@4.10.0@d41d8cd9",
        "@opam/ocamlfind-secondary@opam:1.8.1@1afa38b2",
        "@opam/base-unix@opam:base@87d0b2eb",
        "@opam/base-threads@opam:base@36803084",
        "@esy-ocaml/substs@0.0.1@d41d8cd9"
      ],
      "devDependencies": [
        "ocaml@4.10.0@d41d8cd9",
        "@opam/ocamlfind-secondary@opam:1.8.1@1afa38b2",
        "@opam/base-unix@opam:base@87d0b2eb",
        "@opam/base-threads@opam:base@36803084"
      ]
    },
    "@opam/cppo@opam:1.6.6@f4f83858": {
      "id": "@opam/cppo@opam:1.6.6@f4f83858",
      "name": "@opam/cppo",
      "version": "opam:1.6.6",
      "source": {
        "type": "install",
        "source": [
          "archive:https://opam.ocaml.org/cache/sha256/e7/e7272996a7789175b87bb998efd079794a8db6625aae990d73f7b4484a07b8a0#sha256:e7272996a7789175b87bb998efd079794a8db6625aae990d73f7b4484a07b8a0",
          "archive:https://github.com/ocaml-community/cppo/releases/download/v1.6.6/cppo-v1.6.6.tbz#sha256:e7272996a7789175b87bb998efd079794a8db6625aae990d73f7b4484a07b8a0"
        ],
        "opam": {
          "name": "cppo",
          "version": "1.6.6",
          "path": "esy.lock/opam/cppo.1.6.6"
        }
      },
      "overrides": [],
      "dependencies": [
        "ocaml@4.10.0@d41d8cd9", "@opam/dune@opam:2.5.1@bf0da232",
        "@opam/base-unix@opam:base@87d0b2eb",
        "@esy-ocaml/substs@0.0.1@d41d8cd9"
      ],
      "devDependencies": [
        "ocaml@4.10.0@d41d8cd9", "@opam/dune@opam:2.5.1@bf0da232",
        "@opam/base-unix@opam:base@87d0b2eb"
      ]
    },
    "@opam/conf-m4@opam:1@3b2b148a": {
      "id": "@opam/conf-m4@opam:1@3b2b148a",
      "name": "@opam/conf-m4",
      "version": "opam:1",
      "source": {
        "type": "install",
        "source": [ "no-source:" ],
        "opam": {
          "name": "conf-m4",
          "version": "1",
          "path": "esy.lock/opam/conf-m4.1"
        }
      },
      "overrides": [],
      "dependencies": [ "@esy-ocaml/substs@0.0.1@d41d8cd9" ],
      "devDependencies": []
    },
    "@opam/cmdliner@opam:1.0.4@93208aac": {
      "id": "@opam/cmdliner@opam:1.0.4@93208aac",
      "name": "@opam/cmdliner",
      "version": "opam:1.0.4",
      "source": {
        "type": "install",
        "source": [
          "archive:https://opam.ocaml.org/cache/md5/fe/fe2213d0bc63b1e10a2d0aa66d2fc8d9#md5:fe2213d0bc63b1e10a2d0aa66d2fc8d9",
          "archive:http://erratique.ch/software/cmdliner/releases/cmdliner-1.0.4.tbz#md5:fe2213d0bc63b1e10a2d0aa66d2fc8d9"
        ],
        "opam": {
          "name": "cmdliner",
          "version": "1.0.4",
          "path": "esy.lock/opam/cmdliner.1.0.4"
        }
      },
      "overrides": [],
      "dependencies": [
        "ocaml@4.10.0@d41d8cd9", "@esy-ocaml/substs@0.0.1@d41d8cd9"
      ],
      "devDependencies": [ "ocaml@4.10.0@d41d8cd9" ]
    },
    "@opam/bos@opam:0.2.0@df49e63f": {
      "id": "@opam/bos@opam:0.2.0@df49e63f",
      "name": "@opam/bos",
      "version": "opam:0.2.0",
      "source": {
        "type": "install",
        "source": [
          "archive:https://opam.ocaml.org/cache/md5/ae/aeae7447567db459c856ee41b5a66fd2#md5:aeae7447567db459c856ee41b5a66fd2",
          "archive:http://erratique.ch/software/bos/releases/bos-0.2.0.tbz#md5:aeae7447567db459c856ee41b5a66fd2"
        ],
        "opam": {
          "name": "bos",
          "version": "0.2.0",
          "path": "esy.lock/opam/bos.0.2.0"
        }
      },
      "overrides": [],
      "dependencies": [
        "ocaml@4.10.0@d41d8cd9", "@opam/topkg@opam:1.0.1@a42c631e",
        "@opam/rresult@opam:0.6.0@4b185e72",
        "@opam/ocamlfind@opam:1.8.1@ff07b0f9",
        "@opam/ocamlbuild@opam:0.14.0@6ac75d03",
        "@opam/logs@opam:0.7.0@1d03143e", "@opam/fpath@opam:0.7.2@45477b93",
        "@opam/fmt@opam:0.8.8@01c3a23c",
        "@opam/base-unix@opam:base@87d0b2eb",
        "@opam/astring@opam:0.8.3@4e5e17d5",
        "@esy-ocaml/substs@0.0.1@d41d8cd9"
      ],
      "devDependencies": [
        "ocaml@4.10.0@d41d8cd9", "@opam/rresult@opam:0.6.0@4b185e72",
        "@opam/logs@opam:0.7.0@1d03143e", "@opam/fpath@opam:0.7.2@45477b93",
        "@opam/fmt@opam:0.8.8@01c3a23c",
        "@opam/base-unix@opam:base@87d0b2eb",
        "@opam/astring@opam:0.8.3@4e5e17d5"
      ]
    },
    "@opam/biniou@opam:1.2.1@d7570399": {
      "id": "@opam/biniou@opam:1.2.1@d7570399",
      "name": "@opam/biniou",
      "version": "opam:1.2.1",
      "source": {
        "type": "install",
        "source": [
          "archive:https://opam.ocaml.org/cache/sha256/35/35546c68b1929a8e6d27a3b39ecd17b38303a0d47e65eb9d1480c2061ea84335#sha256:35546c68b1929a8e6d27a3b39ecd17b38303a0d47e65eb9d1480c2061ea84335",
          "archive:https://github.com/mjambon/biniou/releases/download/1.2.1/biniou-1.2.1.tbz#sha256:35546c68b1929a8e6d27a3b39ecd17b38303a0d47e65eb9d1480c2061ea84335"
        ],
        "opam": {
          "name": "biniou",
          "version": "1.2.1",
          "path": "esy.lock/opam/biniou.1.2.1"
        }
      },
      "overrides": [],
      "dependencies": [
        "ocaml@4.10.0@d41d8cd9", "@opam/easy-format@opam:1.3.2@0484b3c4",
        "@opam/dune@opam:2.5.1@bf0da232", "@esy-ocaml/substs@0.0.1@d41d8cd9"
      ],
      "devDependencies": [
        "ocaml@4.10.0@d41d8cd9", "@opam/easy-format@opam:1.3.2@0484b3c4",
        "@opam/dune@opam:2.5.1@bf0da232"
      ]
    },
    "@opam/base-unix@opam:base@87d0b2eb": {
      "id": "@opam/base-unix@opam:base@87d0b2eb",
      "name": "@opam/base-unix",
      "version": "opam:base",
      "source": {
        "type": "install",
        "source": [ "no-source:" ],
        "opam": {
          "name": "base-unix",
          "version": "base",
          "path": "esy.lock/opam/base-unix.base"
        }
      },
      "overrides": [],
      "dependencies": [ "@esy-ocaml/substs@0.0.1@d41d8cd9" ],
      "devDependencies": []
    },
    "@opam/base-threads@opam:base@36803084": {
      "id": "@opam/base-threads@opam:base@36803084",
      "name": "@opam/base-threads",
      "version": "opam:base",
      "source": {
        "type": "install",
        "source": [ "no-source:" ],
        "opam": {
          "name": "base-threads",
          "version": "base",
          "path": "esy.lock/opam/base-threads.base"
        }
      },
      "overrides": [],
      "dependencies": [ "@esy-ocaml/substs@0.0.1@d41d8cd9" ],
      "devDependencies": []
    },
    "@opam/base-bytes@opam:base@19d0c2ff": {
      "id": "@opam/base-bytes@opam:base@19d0c2ff",
      "name": "@opam/base-bytes",
      "version": "opam:base",
      "source": {
        "type": "install",
        "source": [ "no-source:" ],
        "opam": {
          "name": "base-bytes",
          "version": "base",
          "path": "esy.lock/opam/base-bytes.base"
        }
      },
      "overrides": [],
      "dependencies": [
        "ocaml@4.10.0@d41d8cd9", "@opam/ocamlfind@opam:1.8.1@ff07b0f9",
        "@esy-ocaml/substs@0.0.1@d41d8cd9"
      ],
      "devDependencies": [
        "ocaml@4.10.0@d41d8cd9", "@opam/ocamlfind@opam:1.8.1@ff07b0f9"
      ]
    },
    "@opam/base@opam:v0.13.2@c3150775": {
      "id": "@opam/base@opam:v0.13.2@c3150775",
      "name": "@opam/base",
      "version": "opam:v0.13.2",
      "source": {
        "type": "install",
        "source": [
          "archive:https://opam.ocaml.org/cache/md5/f4/f43ce18d98fd0879e77ff671e077e607#md5:f43ce18d98fd0879e77ff671e077e607",
          "archive:https://github.com/janestreet/base/archive/v0.13.2.tar.gz#md5:f43ce18d98fd0879e77ff671e077e607"
        ],
        "opam": {
          "name": "base",
          "version": "v0.13.2",
          "path": "esy.lock/opam/base.v0.13.2"
        }
      },
      "overrides": [],
      "dependencies": [
        "ocaml@4.10.0@d41d8cd9", "@opam/sexplib0@opam:v0.13.0@3f54c2be",
        "@opam/dune-configurator@opam:2.5.1@aeb9d8d5",
        "@opam/dune@opam:2.5.1@bf0da232", "@esy-ocaml/substs@0.0.1@d41d8cd9"
      ],
      "devDependencies": [
        "ocaml@4.10.0@d41d8cd9", "@opam/sexplib0@opam:v0.13.0@3f54c2be",
        "@opam/dune-configurator@opam:2.5.1@aeb9d8d5",
        "@opam/dune@opam:2.5.1@bf0da232"
      ]
    },
    "@opam/atdgen-runtime@opam:2.2.1@6a3a6395": {
      "id": "@opam/atdgen-runtime@opam:2.2.1@6a3a6395",
      "name": "@opam/atdgen-runtime",
      "version": "opam:2.2.1",
      "source": {
        "type": "install",
        "source": [
          "archive:https://opam.ocaml.org/cache/sha256/db/db6b4c1a6293b214a7b7a3da435e681abd1b16b55d5aa246b93d26736d3a559e#sha256:db6b4c1a6293b214a7b7a3da435e681abd1b16b55d5aa246b93d26736d3a559e",
          "archive:https://github.com/ahrefs/atd/releases/download/2.2.1/atd-2.2.1.tbz#sha256:db6b4c1a6293b214a7b7a3da435e681abd1b16b55d5aa246b93d26736d3a559e"
        ],
        "opam": {
          "name": "atdgen-runtime",
          "version": "2.2.1",
          "path": "esy.lock/opam/atdgen-runtime.2.2.1"
        }
      },
      "overrides": [],
      "dependencies": [
        "ocaml@4.10.0@d41d8cd9", "@opam/yojson@opam:1.7.0@7056d985",
        "@opam/re@opam:1.9.0@d4d5e13d", "@opam/dune@opam:2.5.1@bf0da232",
        "@opam/biniou@opam:1.2.1@d7570399",
        "@esy-ocaml/substs@0.0.1@d41d8cd9"
      ],
      "devDependencies": [
        "ocaml@4.10.0@d41d8cd9", "@opam/yojson@opam:1.7.0@7056d985",
        "@opam/re@opam:1.9.0@d4d5e13d", "@opam/dune@opam:2.5.1@bf0da232",
        "@opam/biniou@opam:1.2.1@d7570399"
      ]
    },
    "@opam/atdgen@opam:2.2.1@d73fda11": {
      "id": "@opam/atdgen@opam:2.2.1@d73fda11",
      "name": "@opam/atdgen",
      "version": "opam:2.2.1",
      "source": {
        "type": "install",
        "source": [
          "archive:https://opam.ocaml.org/cache/sha256/db/db6b4c1a6293b214a7b7a3da435e681abd1b16b55d5aa246b93d26736d3a559e#sha256:db6b4c1a6293b214a7b7a3da435e681abd1b16b55d5aa246b93d26736d3a559e",
          "archive:https://github.com/ahrefs/atd/releases/download/2.2.1/atd-2.2.1.tbz#sha256:db6b4c1a6293b214a7b7a3da435e681abd1b16b55d5aa246b93d26736d3a559e"
        ],
        "opam": {
          "name": "atdgen",
          "version": "2.2.1",
          "path": "esy.lock/opam/atdgen.2.2.1"
        }
      },
      "overrides": [],
      "dependencies": [
        "ocaml@4.10.0@d41d8cd9", "@opam/yojson@opam:1.7.0@7056d985",
        "@opam/dune@opam:2.5.1@bf0da232", "@opam/biniou@opam:1.2.1@d7570399",
        "@opam/atdgen-runtime@opam:2.2.1@6a3a6395",
        "@opam/atd@opam:2.2.1@071ab6bd", "@esy-ocaml/substs@0.0.1@d41d8cd9"
      ],
      "devDependencies": [
        "ocaml@4.10.0@d41d8cd9", "@opam/yojson@opam:1.7.0@7056d985",
        "@opam/dune@opam:2.5.1@bf0da232", "@opam/biniou@opam:1.2.1@d7570399",
        "@opam/atdgen-runtime@opam:2.2.1@6a3a6395",
        "@opam/atd@opam:2.2.1@071ab6bd"
      ]
    },
    "@opam/atd@opam:2.2.1@071ab6bd": {
      "id": "@opam/atd@opam:2.2.1@071ab6bd",
      "name": "@opam/atd",
      "version": "opam:2.2.1",
      "source": {
        "type": "install",
        "source": [
          "archive:https://opam.ocaml.org/cache/sha256/db/db6b4c1a6293b214a7b7a3da435e681abd1b16b55d5aa246b93d26736d3a559e#sha256:db6b4c1a6293b214a7b7a3da435e681abd1b16b55d5aa246b93d26736d3a559e",
          "archive:https://github.com/ahrefs/atd/releases/download/2.2.1/atd-2.2.1.tbz#sha256:db6b4c1a6293b214a7b7a3da435e681abd1b16b55d5aa246b93d26736d3a559e"
        ],
        "opam": {
          "name": "atd",
          "version": "2.2.1",
          "path": "esy.lock/opam/atd.2.2.1"
        }
      },
      "overrides": [],
      "dependencies": [
        "ocaml@4.10.0@d41d8cd9", "@opam/re@opam:1.9.0@d4d5e13d",
        "@opam/menhir@opam:20200211@26571604",
        "@opam/easy-format@opam:1.3.2@0484b3c4",
        "@opam/dune@opam:2.5.1@bf0da232", "@esy-ocaml/substs@0.0.1@d41d8cd9"
      ],
      "devDependencies": [
        "ocaml@4.10.0@d41d8cd9", "@opam/re@opam:1.9.0@d4d5e13d",
        "@opam/menhir@opam:20200211@26571604",
        "@opam/easy-format@opam:1.3.2@0484b3c4",
        "@opam/dune@opam:2.5.1@bf0da232"
      ]
    },
    "@opam/astring@opam:0.8.3@4e5e17d5": {
      "id": "@opam/astring@opam:0.8.3@4e5e17d5",
      "name": "@opam/astring",
      "version": "opam:0.8.3",
      "source": {
        "type": "install",
        "source": [
          "archive:https://opam.ocaml.org/cache/md5/c5/c5bf6352b9ac27fbeab342740f4fa870#md5:c5bf6352b9ac27fbeab342740f4fa870",
          "archive:http://erratique.ch/software/astring/releases/astring-0.8.3.tbz#md5:c5bf6352b9ac27fbeab342740f4fa870"
        ],
        "opam": {
          "name": "astring",
          "version": "0.8.3",
          "path": "esy.lock/opam/astring.0.8.3"
        }
      },
      "overrides": [],
      "dependencies": [
        "ocaml@4.10.0@d41d8cd9", "@opam/topkg@opam:1.0.1@a42c631e",
        "@opam/ocamlfind@opam:1.8.1@ff07b0f9",
        "@opam/ocamlbuild@opam:0.14.0@6ac75d03",
        "@opam/base-bytes@opam:base@19d0c2ff",
        "@esy-ocaml/substs@0.0.1@d41d8cd9"
      ],
      "devDependencies": [
        "ocaml@4.10.0@d41d8cd9", "@opam/base-bytes@opam:base@19d0c2ff"
      ]
    },
    "@esy-ocaml/substs@0.0.1@d41d8cd9": {
      "id": "@esy-ocaml/substs@0.0.1@d41d8cd9",
      "name": "@esy-ocaml/substs",
      "version": "0.0.1",
      "source": {
        "type": "install",
        "source": [
          "archive:https://registry.npmjs.org/@esy-ocaml/substs/-/substs-0.0.1.tgz#sha1:59ebdbbaedcda123fc7ed8fb2b302b7d819e9a46"
        ]
      },
      "overrides": [],
      "dependencies": [],
      "devDependencies": []
    },
    "@esy-ocaml/reason@3.6.0@d41d8cd9": {
      "id": "@esy-ocaml/reason@3.6.0@d41d8cd9",
      "name": "@esy-ocaml/reason",
      "version": "3.6.0",
      "source": {
        "type": "install",
        "source": [
          "archive:https://registry.npmjs.org/@esy-ocaml/reason/-/reason-3.6.0.tgz#sha1:ae98f3335e9e03ff0e01376830a14cd1246b5278"
        ]
      },
      "overrides": [],
      "dependencies": [
        "ocaml@4.10.0@d41d8cd9", "@opam/result@opam:1.5@6b753c82",
        "@opam/ocamlfind@opam:1.8.1@ff07b0f9",
        "@opam/ocaml-migrate-parsetree@opam:1.7.3@dbcf3b47",
        "@opam/merlin-extend@opam:0.5@675b1611",
        "@opam/menhir@opam:20200211@26571604",
        "@opam/fix@opam:20200131@0ecd2f01", "@opam/dune@opam:2.5.1@bf0da232"
      ],
      "devDependencies": []
    }
  }
}